…
Finished ggplot decription

BLAST plot with ggplot2

So let’s see the BLAST result we created in the last post. As an example in this time I used the Arabidopsis thaliana PIE1 gene as query and performed BLAST against the Utricularia gibba genome, which is the smallest Angiosperm genome and a carnivorous plant. The gene and the output looks like this:

## pie1

## [1] "ATGGCGTCTAAAGGTGGTAAATCTAAACCTGATATAGTAATGGCGTCCAAGAGTGGGAAATCTAAACCTGATAATGAATCCAGAGCTAAGCGTCAGA..."

pie1_blastout

## # A tibble: 41 × 12
##         qseqid                        sseqid      pident      length
##          <chr>                         <chr>       <chr>       <chr>
## 1  Query_35809   gi|332640072|gb|CP002686.1| Query_35809  CP002686.1
## 2  Query_35809   gi|332640072|gb|CP002686.1| Query_35809  CP002686.1
## 3  Query_35809   gi|332640072|gb|CP002686.1| Query_35809  CP002686.1
## 4  Query_35809   gi|323367034|gb|HQ698308.1| Query_35809  HQ698308.1
## 5  Query_35809   gi|323367034|gb|HQ698308.1| Query_35809  HQ698308.1
## 6  Query_35809 gi|145339164|ref|NM_114467.4| Query_35809 NM_114467.4
## 7  Query_35809  gi|110743639|dbj|AK227670.1| Query_35809  AK227670.1
## 8  Query_35809    gi|30102579|gb|BT006400.1| Query_35809  BT006400.1
## 9  Query_35809   gi|42462870|emb|BX822784.1| Query_35809  BX822784.1
## 10 Query_35809    gi|21405943|gb|AY087219.1| Query_35809  AY087219.1
## # ... with 31 more rows, and 8 more variables: mismatch <dbl>,
## #   gapopen <int>, qstart <int>, qend <int>, sstart <int>, send <int>,
## #   evalue <int>, bitscore <int>
…
pie1_len <- stringr::str_length(pie1)

{{% /alert %}}

As you can see BLAST outputs smaller parts of a gene and it results id duplications. The same id matches should be plotted in one line, while every unique id (=gene) should go in a new line. Easily we will just group and nest the data to append a column with y coordinates and then unnest.

pie1_blastout %>% 
  group_by(qseqid, sseqid) %>% 
  nest() %>%
  mutate(y = sseqid %>% seq_along()) %>% 
  unnest() -> pie1_blastout2

pie1_blastout2

## # A tibble: 41 × 13
##         qseqid                        sseqid     y      pident      length
##          <chr>                         <chr> <int>       <chr>       <chr>
## 1  Query_35809   gi|332640072|gb|CP002686.1|     1 Query_35809  CP002686.1
## 2  Query_35809   gi|332640072|gb|CP002686.1|     1 Query_35809  CP002686.1
## 3  Query_35809   gi|332640072|gb|CP002686.1|     1 Query_35809  CP002686.1
## 4  Query_35809   gi|323367034|gb|HQ698308.1|     2 Query_35809  HQ698308.1
## 5  Query_35809   gi|323367034|gb|HQ698308.1|     2 Query_35809  HQ698308.1
## 6  Query_35809 gi|145339164|ref|NM_114467.4|     3 Query_35809 NM_114467.4
## 7  Query_35809  gi|110743639|dbj|AK227670.1|     4 Query_35809  AK227670.1
## 8  Query_35809    gi|30102579|gb|BT006400.1|     5 Query_35809  BT006400.1
## 9  Query_35809   gi|42462870|emb|BX822784.1|     6 Query_35809  BX822784.1
## 10 Query_35809    gi|21405943|gb|AY087219.1|     7 Query_35809  AY087219.1
## # ... with 31 more rows, and 8 more variables: mismatch <dbl>,
## #   gapopen <int>, qstart <int>, qend <int>, sstart <int>, send <int>,
## #   evalue <int>, bitscore <int>
…
